Lab 5
…
#8

top_10_countries %>% 
  group_by(Country_Region, sum(Deaths), Date) %>% 
  summarise(Deaths = sum(Deaths)) %>%
  arrange(desc(Deaths)) %>%        
  slice_max(Deaths, n = 10)

## `summarise()` regrouping output by 'Country_Region', 'sum(Deaths)' (override with `.groups` argument)

## # A tibble: 1,880 x 4
## # Groups:   Country_Region, sum(Deaths) [188]
##    Country_Region `sum(Deaths)` Date       Deaths
##    <chr>                  <dbl> <date>      <dbl>
##  1 Afghanistan            14541 2020-09-29   1458
##  2 Afghanistan            14541 2020-09-30   1458
##  3 Afghanistan            14541 2020-10-01   1458
##  4 Afghanistan            14541 2020-10-02   1458
##  5 Afghanistan            14541 2020-09-28   1455
##  6 Afghanistan            14541 2020-09-26   1453
##  7 Afghanistan            14541 2020-09-27   1453
##  8 Afghanistan            14541 2020-09-24   1451
##  9 Afghanistan            14541 2020-09-25   1451
## 10 Afghanistan            14541 2020-09-23   1446
## #  with 1,870 more rows
…
